…
```r
library("rfishbase")
common_names(species_list = "Bolbometopon muricatum")
```

```r
# A tibble: 64 x 6
            ComName SpecCode C_Code         Language        Genus   Species
              <chr>    <int>  <chr>            <chr>        <chr>     <chr>
 1        Aliyakyak     5537    608          Visayan Bolbometopon muricatum
 2            Angke     5537    360 Bahasa Indonesia Bolbometopon muricatum
 3            Angke     5537    360             Bajo Bolbometopon muricatum
 4            Angke     5537    360            Malay Bolbometopon muricatum
 5            Angol     5537    608            Bikol Bolbometopon muricatum
 6            Bayan     5537    458            Malay Bolbometopon muricatum
 7    Bayan bonggol     5537    458            Malay Bolbometopon muricatum
 8         Berdebed     5537    585          Palauan Bolbometopon muricatum
 9            Boila     5537    090             Gela Bolbometopon muricatum
10 Bulepapegøjefisk     5537    208           Danish Bolbometopon muricatum
# ... with 54 more rows
```
…
